%YAML 1.1
%TAG !u! tag:unity3d.com,2011:
--- !u!1001 &6742015703639041807
PrefabInstance:
  m_ObjectHideFlags: 0
  serializedVersion: 2
  m_Modification:
    serializedVersion: 3
    m_TransformParent: {fileID: 0}
    m_Modifications:
    - target: {fileID: -8679921383154817045, guid: ce327702b54f6a847b9aff26f093e556, type: 3}
      propertyPath: m_RootOrder
      value: 0
      objectReference: {fileID: 0}
    - target: {fileID: -8679921383154817045, guid: ce327702b54f6a847b9aff26f093e556, type: 3}
      propertyPath: m_LocalPosition.x
      value: 0
      objectReference: {fileID: 0}
    - target: {fileID: -8679921383154817045, guid: ce327702b54f6a847b9aff26f093e556, type: 3}
      propertyPath: m_LocalPosition.y
      value: 0
      objectReference: {fileID: 0}
    - target: {fileID: -8679921383154817045, guid: ce327702b54f6a847b9aff26f093e556, type: 3}
      propertyPath: m_LocalPosition.z
      value: 0
      objectReference: {fileID: 0}
    - target: {fileID: -8679921383154817045, guid: ce327702b54f6a847b9aff26f093e556, type: 3}
      propertyPath: m_LocalRotation.w
      value: 1
      objectReference: {fileID: 0}
    - target: {fileID: -8679921383154817045, guid: ce327702b54f6a847b9aff26f093e556, type: 3}
      propertyPath: m_LocalRotation.x
      value: 0
      objectReference: {fileID: 0}
    - target: {fileID: -8679921383154817045, guid: ce327702b54f6a847b9aff26f093e556, type: 3}
      propertyPath: m_LocalRotation.y
      value: 0
      objectReference: {fileID: 0}
    - target: {fileID: -8679921383154817045, guid: ce327702b54f6a847b9aff26f093e556, type: 3}
      propertyPath: m_LocalRotation.z
      value: 0
      objectReference: {fileID: 0}
    - target: {fileID: -8679921383154817045, guid: ce327702b54f6a847b9aff26f093e556, type: 3}
      propertyPath: m_LocalEulerAnglesHint.x
      value: 0
      objectReference: {fileID: 0}
    - target: {fileID: -8679921383154817045, guid: ce327702b54f6a847b9aff26f093e556, type: 3}
      propertyPath: m_LocalEulerAnglesHint.y
      value: 0
      objectReference: {fileID: 0}
    - target: {fileID: -8679921383154817045, guid: ce327702b54f6a847b9aff26f093e556, type: 3}
      propertyPath: m_LocalEulerAnglesHint.z
      value: 0
      objectReference: {fileID: 0}
    - target: {fileID: -6797416824383407952, guid: ce327702b54f6a847b9aff26f093e556, type: 3}
      propertyPath: m_Materials.Array.data[0]
      value: 
      objectReference: {fileID: 2100000, guid: 925dbb38c47ca714c9c0ef4c703eaf2a, type: 2}
    - target: {fileID: 919132149155446097, guid: ce327702b54f6a847b9aff26f093e556, type: 3}
      propertyPath: m_Name
      value: AlaskaTedStevensIntlAirportGeoslice
      objectReference: {fileID: 0}
    m_RemovedComponents: []
    m_RemovedGameObjects:
    - {fileID: -8700617353114198275, guid: ce327702b54f6a847b9aff26f093e556, type: 3}
    - {fileID: 65702495048144492, guid: ce327702b54f6a847b9aff26f093e556, type: 3}
    m_AddedGameObjects: []
    m_AddedComponents: []
  m_SourcePrefab: {fileID: 100100000, guid: ce327702b54f6a847b9aff26f093e556, type: 3}
