%YAML 1.1
%TAG !u! tag:unity3d.com,2011:
--- !u!1 &3899283617004651634
GameObject:
  m_ObjectHideFlags: 0
  m_CorrespondingSourceObject: {fileID: 0}
  m_PrefabInstance: {fileID: 0}
  m_PrefabAsset: {fileID: 0}
  serializedVersion: 6
  m_Component:
  - component: {fileID: 3190245269156978977}
  m_Layer: 0
  m_Name: Waypoint
  m_TagString: RefDataWaypoint
  m_Icon: {fileID: 0}
  m_NavMeshLayer: 0
  m_StaticEditorFlags: 0
  m_IsActive: 1
--- !u!4 &3190245269156978977
Transform:
  m_ObjectHideFlags: 0
  m_CorrespondingSourceObject: {fileID: 0}
  m_PrefabInstance: {fileID: 0}
  m_PrefabAsset: {fileID: 0}
  m_GameObject: {fileID: 3899283617004651634}
  m_LocalRotation: {x: 0, y: 0, z: 0, w: 1}
  m_LocalPosition: {x: 0, y: 0, z: 0}
  m_LocalScale: {x: 1, y: 1, z: 1}
  m_ConstrainProportionsScale: 0
  m_Children:
  - {fileID: 4792660477147491240}
  m_Father: {fileID: 0}
  m_RootOrder: -1
  m_LocalEulerAnglesHint: {x: 0, y: 0, z: 0}
--- !u!1001 &3855626991111073808
PrefabInstance:
  m_ObjectHideFlags: 0
  serializedVersion: 2
  m_Modification:
    serializedVersion: 3
    m_TransformParent: {fileID: 3190245269156978977}
    m_Modifications:
    - target: {fileID: 6150314530579034449, guid: 4a553df655b804f46929ebd1f78f8790, type: 3}
      propertyPath: m_Name
      value: Aeroplane
      objectReference: {fileID: 0}
    - target: {fileID: 8021963198618857761, guid: 4a553df655b804f46929ebd1f78f8790, type: 3}
      propertyPath: m_Materials.Array.data[0]
      value: 
      objectReference: {fileID: 2100000, guid: 4e9813d6adcbc5240af13bbc79eea4c8, type: 2}
    - target: {fileID: 8575701541535308728, guid: 4a553df655b804f46929ebd1f78f8790, type: 3}
      propertyPath: m_RootOrder
      value: -1
      objectReference: {fileID: 0}
    - target: {fileID: 8575701541535308728, guid: 4a553df655b804f46929ebd1f78f8790, type: 3}
      propertyPath: m_LocalPosition.x
      value: 0
      objectReference: {fileID: 0}
    - target: {fileID: 8575701541535308728, guid: 4a553df655b804f46929ebd1f78f8790, type: 3}
      propertyPath: m_LocalPosition.y
      value: 0
      objectReference: {fileID: 0}
    - target: {fileID: 8575701541535308728, guid: 4a553df655b804f46929ebd1f78f8790, type: 3}
      propertyPath: m_LocalPosition.z
      value: 0
      objectReference: {fileID: 0}
    - target: {fileID: 8575701541535308728, guid: 4a553df655b804f46929ebd1f78f8790, type: 3}
      propertyPath: m_LocalEulerAnglesHint.x
      value: 0
      objectReference: {fileID: 0}
    - target: {fileID: 8575701541535308728, guid: 4a553df655b804f46929ebd1f78f8790, type: 3}
      propertyPath: m_LocalEulerAnglesHint.y
      value: 0
      objectReference: {fileID: 0}
    - target: {fileID: 8575701541535308728, guid: 4a553df655b804f46929ebd1f78f8790, type: 3}
      propertyPath: m_LocalEulerAnglesHint.z
      value: 0
      objectReference: {fileID: 0}
    m_RemovedComponents: []
    m_RemovedGameObjects: []
    m_AddedGameObjects: []
    m_AddedComponents: []
  m_SourcePrefab: {fileID: 100100000, guid: 4a553df655b804f46929ebd1f78f8790, type: 3}
--- !u!4 &4792660477147491240 stripped
Transform:
  m_CorrespondingSourceObject: {fileID: 8575701541535308728, guid: 4a553df655b804f46929ebd1f78f8790, type: 3}
  m_PrefabInstance: {fileID: 3855626991111073808}
  m_PrefabAsset: {fileID: 0}
